com\epam\jmp\model\impl\EventImpl.class
com\epam\jmp\repository\EventRepository.class
com\epam\jmp\model\Ticket.class
com\epam\jmp\facade\impl\BookingFacadeImpl.class
com\epam\jmp\model\impl\TicketImpl.class
com\epam\jmp\repository\impl\EventRepositoryImpl.class
com\epam\jmp\repository\impl\TicketRepositoryImpl$1.class
com\epam\jmp\repository\TicketRepository.class
com\epam\jmp\repository\UserRepository.class
com\epam\jmp\model\User.class
com\epam\jmp\service\impl\EventServiceImpl.class
com\epam\jmp\storage\BookingStorage.class
com\epam\jmp\service\EventService.class
com\epam\jmp\facade\BookingFacade.class
com\epam\jmp\repository\impl\UserRepositoryImpl.class
com\epam\jmp\model\exception\EntityNotFoundException.class
com\epam\jmp\model\Ticket$Category.class
com\epam\jmp\controller\BookingController.class
com\epam\jmp\service\UserService.class
com\epam\jmp\service\impl\TicketServiceImpl.class
com\epam\jmp\service\impl\UserServiceImpl.class
com\epam\jmp\common\StorageBeanPostProcessor.class
com\epam\jmp\repository\impl\TicketRepositoryImpl.class
com\epam\jmp\service\TicketService.class
com\epam\jmp\common\SpringRunner.class
com\epam\jmp\controller\UserController.class
com\epam\jmp\repository\impl\TicketRepositoryImpl$2.class
com\epam\jmp\model\Event.class
com\epam\jmp\model\impl\UserImpl.class
